........
----------------------------------------------------------------------
Ran 8 tests in 0.004s

OK
Name               Stmts   Miss Branch BrPart  Cover   Missing
--------------------------------------------------------------
Diplomacy.py          49      0     28      0   100%
TestDiplomacy.py      46      0      0      0   100%
--------------------------------------------------------------
TOTAL                 95      0     28      0   100%
